<?xml version="1.0" encoding="utf-8"?>
<COLLADA xmlns="http://www.collada.org/2005/11/COLLADASchema" version="1.4.1" xmlns:xsi="http://www.w3.org/2001/XMLSchema-instance">
  <asset>
    <contributor>
      <author>Blender User</author>
      <authoring_tool>Blender 2.93.5 commit date:2021-10-05, commit time:12:04, hash:a791bdabd0b2</authoring_tool>
    </contributor>
    <created>2021-11-11T13:21:04</created>
    <modified>2021-11-11T13:21:04</modified>
    <unit name="meter" meter="1"/>
    <up_axis>Z_UP</up_axis>
  </asset>
  <library_effects>
    <effect id="BoxBot3-effect">
      <profile_COMMON>
        <newparam sid="BoxBot3Texture-surface">
          <surface type="2D">
            <init_from>BoxBot3Texture</init_from>
          </surface>
        </newparam>
        <newparam sid="BoxBot3Texture-sampler">
          <sampler2D>
            <source>BoxBot3Texture-surface</source>
          </sampler2D>
        </newparam>
        <technique sid="common">
          <lambert>
            <emission>
              <color sid="emission">0 0 0 1</color>
            </emission>
            <diffuse>
              <texture texture="BoxBot3Texture-sampler" texcoord="BoxBot3Cube-mesh-map-0"/>
            </diffuse>
            <index_of_refraction>
              <float sid="ior">1.45</float>
            </index_of_refraction>
          </lambert>
        </technique>
      </profile_COMMON>
    </effect>
  </library_effects>
  <library_images>
    <image id="BoxBot3Texture" name="BoxBot3Texture">
      <init_from>lambert3_baseColor_3.png</init_from>
    </image>
  </library_images>
  <library_materials>
    <material id="BoxBot3-material" name="BoxBot3">
      <instance_effect url="#BoxBot3-effect"/>
    </material>
  </library_materials>
  <library_geometries>
    <geometry id="BoxBot3Mesh-mesh" name="BoxBot3Mesh">
      <mesh>
        <source id="BoxBot3Mesh-mesh-positions">
          <float_array id="BoxBot3Mesh-mesh-positions-array" count="72">-0.4999999 -0.4500001 0.4500001 -0.4499999 -0.5 0.4500001 -0.4499999 -0.4500001 0.5000001 -0.4499999 0.5 0.4500001 -0.5 0.45 0.4500001 -0.4499999 0.45 0.5000001 0.4500001 -0.45 0.4999999 0.4500001 -0.5 0.4499999 0.5000001 -0.45 0.4499999 0.4500001 0.4500001 0.4999999 0.5000001 0.4500001 0.4499999 0.4500001 0.5 0.4499999 -0.5000001 -0.4500001 -0.4499999 -0.4500001 -0.4500001 -0.4999999 -0.4500001 -0.5 -0.4499999 -0.4500001 0.45 -0.4999999 -0.5000001 0.45 -0.4499999 -0.4500001 0.5 -0.4499999 0.4499999 -0.45 -0.5000001 0.5 -0.45 -0.4500001 0.4499999 -0.5 -0.4500001 0.4499999 0.5 -0.4500001 0.4999999 0.4500001 -0.4500001 0.4499999 0.4500001 -0.5000001</float_array>
          <technique_common>
            <accessor source="#BoxBot3Mesh-mesh-positions-array" count="24" stride="3">
              <param name="X" type="float"/>
              <param name="Y" type="float"/>
              <param name="Z" type="float"/>
            </accessor>
          </technique_common>
        </source>
        <source id="BoxBot3Mesh-mesh-normals">
          <float_array id="BoxBot3Mesh-mesh-normals-array" count="129">0 1 0 -1.47172e-7 0 -1 1 0 -1.98682e-7 0 -1 0 1.47172e-7 0 1 -0.5773497 -0.5773506 0.5773506 -0.5773503 0.5773503 0.5773503 0.5773509 -0.57735 0.57735 0.5773495 0.5773512 0.5773503 -0.5773495 -0.5773512 -0.5773503 -0.5773509 0.57735 -0.57735 0.5773503 -0.5773503 -0.5773503 0.5773497 0.5773506 -0.5773506 -2.34149e-7 0.7071065 -0.707107 -0.7071071 0.7071066 0 -0.7071066 0 0.707107 0.7071066 0 -0.707107 0.707107 0 0.7071066 -0.7071066 0 -0.707107 0.707107 -0.7071066 0 1.75612e-7 -0.7071068 0.7071068 0.7071068 0.7071068 -1.75612e-7 0 -0.7071064 -0.7071072 -0.7071068 -0.7071068 0 1.75612e-7 0.707107 0.7071066 -1 0 1.32455e-7 -2.20758e-7 0 -1 1 0 -1.32455e-7 0 -1 0 2.20758e-7 0 1 0 0.7071068 -0.7071068 -0.707107 0.7071066 0 -0.7071066 0 0.7071071 0.7071066 0 -0.7071071 0.7071071 0 0.7071066 -0.7071075 0 -0.7071061 0.7071071 -0.7071066 0 1.75612e-7 -0.7071065 0.707107 0.7071064 0.7071073 0 0 -0.707107 -0.7071066 -0.7071064 -0.7071072 1.63904e-7 0 0.7071064 0.7071072 -1 0 1.98682e-7</float_array>
          <technique_common>
            <accessor source="#BoxBot3Mesh-mesh-normals-array" count="43" stride="3">
              <param name="X" type="float"/>
              <param name="Y" type="float"/>
              <param name="Z" type="float"/>
            </accessor>
          </technique_common>
        </source>
        <source id="BoxBot3Mesh-mesh-map-0">
          <float_array id="BoxBot3Mesh-mesh-map-0-array" count="264">0.3625 0.5125 0.1374999 0.7375 0.1375 0.5125 0.6125 0.01249992 0.3875 0.2375 0.3875 0.01249992 0.6125 0.7625 0.3875 0.9875 0.3875 0.7625 0.8625 0.5125 0.6375 0.7375 0.6375 0.5125 0.6125 0.5125 0.3875 0.7375 0.3875 0.5125 0.6125 0.4875 0.625 0.4875 0.6125 0.5 0.3625 0.5125 0.3625 0.5 0.375 0.5125 0.6125 0.7375 0.625 0.7375 0.6125 0.75 0.3875 0.75 0.375 0.7625 0.375 0.7625 0.6125 0.25 0.6125 0.25 0.625 0.2375 0.3875 0.2375 0.3875 0.25 0.375 0.2375 0.6125 0.01249992 0.6125 0 0.625 0.01249992 0.1374999 0.7375 0.1375 0.75 0.125 0.7375 0.1374999 0.7375 0.125 0.5125 0.1375 0.5125 0.1375 0.5125 0.3625 0.5 0.3625 0.5125 0.3875 0.5125 0.6125 0.4875 0.6125 0.5125 0.6125 0 0.3875 0.01249992 0.3875 0 0.3875 0.7625 0.6125 0.7375 0.6125 0.7625 0.3875 0.2625 0.6125 0.2375 0.6125 0.2625 0.625 0.9875 0.6125 0.7625 0.625 0.7625 0.6375 0.7375 0.6125 0.5125 0.6375 0.5125 0.3625 0.7375 0.1375 0.75 0.1374999 0.7375 0.625 0.2375 0.6125 0.01249992 0.625 0.01249992 0.625 0.4875 0.6125 0.2625 0.625 0.2625 0.3625 0.5125 0.3875 0.7375 0.3625 0.7375 0.6125 0.2625 0.3875 0.4875 0.3875 0.2625 0.3625 0.5125 0.3625 0.7375 0.1374999 0.7375 0.6125 0.01249992 0.6125 0.2375 0.3875 0.2375 0.6125 0.7625 0.6125 0.9875 0.3875 0.9875 0.8625 0.5125 0.8625 0.7375 0.6375 0.7375 0.6125 0.5125 0.6125 0.7375 0.3875 0.7375 0.1374999 0.7375 0.125 0.7375 0.125 0.5125 0.1375 0.5125 0.1375 0.5 0.3625 0.5 0.3875 0.5125 0.3875 0.4875 0.6125 0.4875 0.6125 0 0.6125 0.01249992 0.3875 0.01249992 0.3875 0.7625 0.3875 0.7375 0.6125 0.7375 0.3875 0.2625 0.3875 0.2375 0.6125 0.2375 0.625 0.9875 0.6125 0.9875 0.6125 0.7625 0.6375 0.7375 0.6125 0.7375 0.6125 0.5125 0.3625 0.7375 0.3625 0.75 0.1375 0.75 0.625 0.2375 0.6125 0.2375 0.6125 0.01249992 0.625 0.4875 0.6125 0.4875 0.6125 0.2625 0.3625 0.5125 0.3875 0.5125 0.3875 0.7375 0.6125 0.2625 0.6125 0.4875 0.3875 0.4875</float_array>
          <technique_common>
            <accessor source="#BoxBot3Mesh-mesh-map-0-array" count="132" stride="2">
              <param name="S" type="float"/>
              <param name="T" type="float"/>
            </accessor>
          </technique_common>
        </source>
        <vertices id="BoxBot3Mesh-mesh-vertices">
          <input semantic="POSITION" source="#BoxBot3Mesh-mesh-positions"/>
        </vertices>
        <triangles material="BoxBot3-material" count="44">
          <input semantic="VERTEX" source="#BoxBot3Mesh-mesh-vertices" offset="0"/>
          <input semantic="NORMAL" source="#BoxBot3Mesh-mesh-normals" offset="1"/>
          <input semantic="TEXCOORD" source="#BoxBot3Mesh-mesh-map-0" offset="2" set="0"/>
          <p>3 0 0 21 0 1 17 0 2 18 1 3 15 1 4 23 1 5 8 2 6 22 2 7 10 2 8 14 3 9 7 3 10 1 3 11 2 4 12 9 4 13 5 4 14 0 5 15 1 5 16 2 5 17 3 6 18 4 6 19 5 6 20 6 7 21 7 7 22 8 7 23 9 8 24 10 8 25 11 8 26 12 9 27 13 9 28 14 9 29 15 10 30 16 10 31 17 10 32 18 11 33 19 11 34 20 11 35 21 12 36 22 12 37 23 12 38 21 13 39 15 13 40 17 13 41 17 14 42 4 14 43 3 14 44 5 15 45 0 15 46 2 15 47 19 16 48 23 16 49 22 16 50 10 17 51 6 17 52 8 17 53 16 18 54 13 18 55 12 18 56 20 19 57 8 19 58 7 19 59 7 20 60 2 20 61 1 20 62 11 21 63 22 21 64 21 21 65 14 22 66 18 22 67 20 22 68 1 23 69 12 23 70 14 23 71 3 24 72 9 24 73 11 24 74 12 25 75 4 25 76 16 25 77 3 0 78 11 0 79 21 0 80 18 26 81 13 26 82 15 26 83 8 27 84 19 27 85 22 27 86 14 28 87 20 28 88 7 28 89 2 29 90 6 29 91 9 29 92 21 30 93 23 30 94 15 30 95 17 31 96 16 31 97 4 31 98 5 32 99 4 32 100 0 32 101 19 33 102 18 33 103 23 33 104 10 34 105 9 34 106 6 34 107 16 35 108 15 35 109 13 35 110 20 36 111 19 36 112 8 36 113 7 37 114 6 37 115 2 37 116 11 38 117 10 38 118 22 38 119 14 39 120 13 39 121 18 39 122 1 40 123 0 40 124 12 40 125 3 41 126 5 41 127 9 41 128 12 42 129 0 42 130 4 42 131</p>
        </triangles>
      </mesh>
    </geometry>
  </library_geometries>
  <library_visual_scenes>
    <visual_scene id="Scene" name="Scene">
      <node id="BoxBot3Cube" name="BoxBot3Cube" type="NODE">
        <matrix sid="transform">1 0 0 0 0 1 0 0 0 0 1 0 0 0 0 1</matrix>
        <instance_geometry url="#BoxBot3Mesh-mesh" name="BoxBot3Cube">
          <bind_material>
            <technique_common>
              <instance_material symbol="BoxBot3-material" target="#BoxBot3-material">
                <bind_vertex_input semantic="BoxBot3Cube-mesh-map-0" input_semantic="TEXCOORD" input_set="0"/>
              </instance_material>
            </technique_common>
          </bind_material>
        </instance_geometry>
      </node>
    </visual_scene>
  </library_visual_scenes>
  <scene>
    <instance_visual_scene url="#Scene"/>
  </scene>
</COLLADA>