<?xml version="1.0" ?>

<sdf version="1.6">
  <world name="default">

     <scene>
      <ambient>0.8 0.8 0.8 1.0</ambient>
      <background>0 0 0</background>
      <grid>false</grid>
    </scene>

  <gui>
      <camera name="gui_camera">
        <pose>1.94823 -5.9477 2.87535 0 0.6 1.57</pose>
      </camera>
      <plugin name="toggle_charging" filename="libtoggle_charging.so" />
    </gui>

    <include>
      <uri>model://sun</uri>
    </include>

    <include>
      <uri>model://box_restaurant</uri>
      <pose>1.44 -1.65 -0.1 0 0 0</pose>
    </include>


    


    <!-- The Actors -->
    <!-- Bartender-->
    <include>
      <uri>model://barman</uri>
      <name>barman</name>
      <pose>3.2474 -0.996 -0.10 0 0 0</pose>
    </include>

    <include>
      <uri>model://customer_1</uri>
      <name>customer_1</name>
      <pose>1.72 -3.55 -0.25 0 0 -1.57</pose>
    </include>

    <include>
      <uri>model://customer_3</uri>
      <name>customer_3</name>
      <pose>0.85 -3.55 -0.25 0 0 1.57</pose>
    </include>
    
    <include>
      <uri>model://customer_4</uri>
      <name>customer_4</name>
      <pose>4.10 -3.55 -0.286 0 0 -1.57</pose>
    </include>
    
    <plugin name="gazebo_ros_state" filename="libgazebo_ros_state.so">
      <ros>
        <namespace>/gazebo</namespace>
      </ros>
      <update_rate>5.0</update_rate>
    </plugin>

    <!-- Charging Stations -->
    <include>
      <uri>model://charging_station_1</uri>
      <pose>0.5877 -0.7463 -0.06 0 0 -1.52</pose>
    </include>

        <include>
      <uri>model://charging_station_2</uri>
      <pose>1.1917 -0.7346 -0.06 0 0 -1.52</pose>
    </include>


    <include>
      <uri>model://charging_station_3</uri>
      <pose>1.7981 -0.7090 -0.06 0 0 -1.52</pose>
    </include>

    <!-- This doesnt work with robots that have some z displacement in teh slotcar , like box_bots-->
    <!-- <rmf_charger_waypoints name="charger_waypoints">
      <rmf_vertex name="box_bot_1_charging_station" x="0.5877" y="-0.7463" level="L1" />
      <rmf_vertex name="box_bot_2_charging_station" x="1.1917" y="-0.7346" level="L1" />
      <rmf_vertex name="box_bot_3_charging_station" x="1.7981" y="-0.7090" level="L1" />
    </rmf_charger_waypoints> -->

  </world>
</sdf>
