<?xml version="1.0" ?>
<robot xmlns:xacro="http://www.ros.org/wiki/xacro">


  <xacro:macro name="camera_rgb" params="robot_name parent_name origin_xyz camera_ROLL camera_PITCH camera_YAW">

    <link name="${robot_name}_rgb_camera_link_frame">
    </link>

    <joint name="${robot_name}_rgb_camera_link_frame_joint" type="fixed">
        <origin rpy="${camera_ROLL} ${camera_PITCH} ${camera_YAW}" xyz="${origin_xyz}"/>
        <parent link="${parent_name}" />
        <child link="${robot_name}_rgb_camera_link_frame" />
        <axis xyz="0 0 0"/>
    </joint>

    <gazebo reference="${robot_name}_rgb_camera_link_frame">
        <sensor name="${robot_name}_camera" type="wideanglecamera">
          <camera>
            <horizontal_fov>1.0472</horizontal_fov>
            <image>
              <width>320</width>
              <height>240</height>
            </image>
            <clip>
              <near>0.1</near>
              <far>100</far>
            </clip>
            <lens>
              <type>custom</type>
              <custom_function>
                <c1>1.05</c1>
                <c2>4</c2>
                <f>1.0</f>
                <fun>tan</fun>
              </custom_function>
              <scale_to_hfov>true</scale_to_hfov>
              <cutoff_angle>3.1415</cutoff_angle>
              <env_texture_size>512</env_texture_size>
            </lens>
            <always_on>1</always_on>
            <update_rate>30</update_rate>
          </camera>
          <plugin name="camera_controller" filename="libgazebo_ros_camera.so">
            <ros>
            </ros>
            <cameraName>${robot_name}_rgb_camera</cameraName>
            <imageTopicName>image_raw</imageTopicName>
            <cameraInfoTopicName>camera_info</cameraInfoTopicName>
            <frameName>${robot_name}_rgb_camera_link_frame</frameName>
            <hackBaseline>0.07</hackBaseline>
          </plugin>
        </sensor>
    </gazebo>

  </xacro:macro>


  
  <xacro:macro name="laser_scan" params="robot_name parent_name origin_xyz sensor_YAW">

    <link name="${robot_name}_laser_scan_frame">
    </link>

    <joint name="${robot_name}_laser_scan_frame_joint" type="fixed">
        <origin xyz="${origin_xyz}" rpy="0 0 ${sensor_YAW}" />
        <parent link="${parent_name}" />
        <child link="${robot_name}_laser_scan_frame" />
    </joint>

    <gazebo reference="${robot_name}_laser_scan_frame">
      <sensor name="sensor_ray" type="ray">
          <pose>0 0 0 0 0 0</pose>
          <ray>
            <scan>
              <horizontal>
                <samples>200</samples>
                <resolution>1.0</resolution>
                <min_angle>-3.14</min_angle>
                <max_angle>3.14</max_angle>
              </horizontal>
            </scan>
            <range>
              <min>0.1</min>
              <max>5.0</max>
            </range>
          </ray>
          <always_on>true</always_on>
          <visualize>true</visualize>
          <update_rate>100.0</update_rate>
          <plugin name="laser" filename="libgazebo_ros_ray_sensor.so">
            <ros>
              <remapping>~/out:=${robot_name}/laser_scan</remapping>
            </ros>
            <output_type>sensor_msgs/LaserScan</output_type>
          </plugin>
        </sensor>
    </gazebo>

  </xacro:macro>


<xacro:macro name="point_cloud_sensor" params="robot_name parent_name sensor_name origin_xyz sensor_YAW">

  <link name='${robot_name}_pointcloud_link'>
	</link>

  <joint name="${robot_name}_pointcloud_link_joint" type="fixed">
		<origin rpy="0 0 ${sensor_YAW}" xyz="${origin_xyz}"/>
		<parent link="${parent_name}"/>
		<child link="${robot_name}_pointcloud_link"/>
	</joint>


    <gazebo reference="${robot_name}_pointcloud_link">
        <sensor type="ray" name="${robot_name}_pointcloud_sensor">
            <ray>
            <scan>
                <horizontal>
                    <samples>50</samples>
                    <resolution>1.0</resolution>
                    <min_angle>-1.0</min_angle>
                    <max_angle>1.0</max_angle>
                </horizontal>
                <vertical>
                    <samples>50</samples>
                    <resolution>1.0</resolution>
                    <min_angle>-1.0</min_angle>
                    <max_angle>1.0</max_angle>
                </vertical>
            </scan>
            <range>
                <min>0.10</min>
                <max>5.0</max>
                <resolution>0.01</resolution>
            </range>
            <!-- Using gazebo's noise instead of plugin's -->
            <noise>
                <type>gaussian</type>
                <mean>0.0</mean>
                <stddev>0.01</stddev>
            </noise>
            </ray>
            <!-- Using gazebo's update rate instead of plugin's -->
            <update_rate>30</update_rate>
            <plugin name="gazebo_ros_block_laser_controller" filename="libgazebo_ros_ray_sensor.so">
            <!-- Change namespace and output topic so published topic is /rrbot/laser/pointcloud -->
            <ros>
                <argument>--ros-args --remap ~/out:=${robot_name}/pointcloud</argument>
                
            </ros>
            <!-- Set output to sensor_msgs/PointCloud to get same output type as gazebo_ros_block_laser -->
            <output_type>sensor_msgs/PointCloud</output_type>
            <frameName>${robot_name}_pointcloud_link</frameName>

            <!-- min_intensity instead of hokuyoMinIntensity -->
            <min_intensity>100.0</min_intensity>
            </plugin>
        </sensor>
    </gazebo>


</xacro:macro>



</robot>